[gd_scene load_steps=4 format=2]

[ext_resource path="res://icon.png" type="Texture" id=1]
[ext_resource path="res://Player.gd" type="Script" id=2]
[ext_resource path="res://addons/godot-rollback-netcode/NetworkRandomNumberGenerator.gd" type="Script" id=3]

[node name="Player" type="Node2D" groups=["network_sync"]]
script = ExtResource( 2 )

[node name="Sprite" type="Sprite" parent="."]
texture = ExtResource( 1 )

[node name="NetworkRandomNumberGenerator" type="Node" parent="."]
script = ExtResource( 3 )
